{"results":[{"starts_on":"2021-01-15","ends_on":"2021-03-15","type":"Section","hierarchy":{"title":"15","subtitle":"B","chapter":"VII","subchapter":"C","part":"744","subpart":null,"subject_group":null,"section":"744.3","appendix":null},"hierarchy_headings":{"title":"Title 15","subtitle":"Subtitle B","chapter":" Chapter VII","subchapter":"Subchapter C","part":"Part 744","subpart":null,"subject_group":null,"section":"§ 744.3","appendix":null},"headings":{"title":"Commerce and Foreign Trade","subtitle":"Regulations Relating to Commerce and Foreign Trade","chapter":"Bureau of Industry and Security, Department of Commerce","subchapter":"Export Administration Regulations","part":"Control Policy: End-User and End-Use Based","subpart":null,"subject_group":null,"section":"Restrictions on certain rocket systems (including ballistic missiles, space launch vehicles and sounding rockets) and unmanned aerial vehicles (including cruise missiles, target \u003cstrong\u003edrones\u003c/strong\u003e and reconnaissance \u003cstrong\u003edrones\u003c/strong\u003e) end-uses.","appendix":null},"full_text_excerpt":"to, cruise missiles, target \u003cstrong\u003edrones\u003c/strong\u003e and reconnaissance \u003cstrong\u003edrones\u003c/strong\u003e. (b) Additional prohibition","score":14.216046,"structure_index":20393,"reserved":false,"removed":false,"change_types":["cross_reference"]},{"starts_on":"2017-07-07","ends_on":"2021-01-14","type":"Section","hierarchy":{"title":"15","subtitle":"B","chapter":"VII","subchapter":"C","part":"744","subpart":null,"subject_group":null,"section":"744.3","appendix":null},"hierarchy_headings":{"title":"Title 15","subtitle":"Subtitle B","chapter":" Chapter VII","subchapter":"Subchapter C","part":"Part 744","subpart":null,"subject_group":null,"section":"§ 744.3","appendix":null},"headings":{"title":"Commerce and Foreign Trade","subtitle":"Regulations Relating to Commerce and Foreign Trade","chapter":"Bureau of Industry and Security, Department of Commerce","subchapter":"Export Administration Regulations","part":"Control Policy: End-User and End-Use Based","subpart":null,"subject_group":null,"section":"Restrictions on certain rocket systems (including ballistic missiles, space launch vehicles and sounding rockets) and unmanned aerial vehicles (including cruise missiles, target \u003cstrong\u003edrones\u003c/strong\u003e and reconnaissance \u003cstrong\u003edrones\u003c/strong\u003e) end-uses.","appendix":null},"full_text_excerpt":"to, cruise missiles, target \u003cstrong\u003edrones\u003c/strong\u003e and reconnaissance \u003cstrong\u003edrones\u003c/strong\u003e. (b) Additional prohibition","score":14.00819,"structure_index":20403,"reserved":false,"removed":false,"change_types":["effective"]}],"meta":{"current_page":1,"total_pages":135,"total_count":270,"max_score":14.216046,"description":"Changes to sections matching 'drone'"}}