{"description":"Documents matching 'artificial intelligence'","count":1486,"total_pages":50,"next_page_url":"https://www.federalregister.gov/api/v1/documents?conditions%5Bterm%5D=artificial+intelligence&format=json&page=2&per_page=2","results":[{"title":"NIST Artificial Intelligence Consortium","type":"Notice","abstract":"The National Institute of Standards and Technology (NIST), an agency of the United States Department of Commerce, previously announced the formation of the Artificial Intelligence Safety Institute Consortium (\"AISIC\") through a publication dated November 2, 2023 (88 FR 75276). AISIC brought together more than 280 organizations to develop science-based and empirically backed guidelines and standards for artificial intelligence (AI) measurement, laying a foundation for global AI metrology. Through this succeeding notice, NIST is announcing the retitling of AISIC as the NIST Artificial Intelligence Consortium (\"Consortium\"), revising the scope of the Consortium's research, and reissuing its invitation to organizations to submit letters of interest in order to collaborate with NIST, non-profit organizations, industry leaders, universities, and other agencies of the Federal Government in addressing the challenges associated with the development and deployment of AI-based innovations. In support of NIST's directives under the National Artificial Intelligence Initiative Act of 2020 (Pub. L. 116-283), in accordance with Executive Order 14179 issued January 23, 2025 (Removing Barriers to American Leadership in Artificial Intelligence), and as mandated by America's AI Action Plan, issued July 2025, NIST will utilize the Consortium to empower the collaborative establishment of a new measurement science that will enable the identification of proven, scalable, and interoperable techniques and metrics to promote the development and use of AI. Interested organizations should describe the technical expertise and products, data, and/or models that they will bring to the Consortium to support the Consortium's collaborative research activities. Participation in the Consortium is open to all interested organizations that can contribute their expertise, products, data, and/or models to the Consortium activities. Selected participants will be required to enter into a Consortium Cooperative Research and Development Agreement (CRADA) with NIST. At NIST's discretion, entities that are not legally permitted to enter into CRADAs pursuant to law may be allowed to participate in the Consortium under a separate non-CRADA agreement. Organizations that are already members of the Consortium (\"Consortium Members\") are not required to reapply to NIST but may be asked to sign amendments to their current agreements with NIST that reflect the refocused direction of the Consortium.","document_number":"2026-10779","html_url":"https://www.federalregister.gov/documents/2026/05/29/2026-10779/nist-artificial-intelligence-consortium","pdf_url":"https://www.govinfo.gov/content/pkg/FR-2026-05-29/pdf/2026-10779.pdf","public_inspection_pdf_url":"https://public-inspection.federalregister.gov/2026-10779.pdf?1779972326","publication_date":"2026-05-29","agencies":[{"raw_name":"DEPARTMENT OF COMMERCE","name":"Commerce Department","id":54,"url":"https://www.federalregister.gov/agencies/commerce-department","json_url":"https://www.federalregister.gov/api/v1/agencies/54","parent_id":null,"slug":"commerce-department"},{"raw_name":"National Institute of Standards and Technology","name":"National Institute of Standards and Technology","id":352,"url":"https://www.federalregister.gov/agencies/national-institute-of-standards-and-technology","json_url":"https://www.federalregister.gov/api/v1/agencies/352","parent_id":54,"slug":"national-institute-of-standards-and-technology"}],"excerpts":"products, data, and/or models to enable innovation, standardization, and interoperability within AI systems. The full project can be viewed at: \n https://www.nist.gov/<span class=\"match\">artificial</span>-<span class=\"match\">intelligence</span>/<span class=\"match\">artificial</span>-<span class=\"match\">intelligence</span>-consortium. \n \n \n Interested parties can submit a letter of interest by visiting the project website at \n https://www.nist.gov/<span class=\"match\">artificial</span>-<span class=\"match\">intelligence</span>/<span class=\"match\">artificial</span>-<span class=\"match\">intelligence</span>-consortium/LOI \n and completing the letter of interest webform; alternatively, parties can answer the questions detailed in LETTER OF INTEREST, below, and send via"},{"title":"Policy Statement Concerning the Suppression of Accuracy in Artificial Intelligence Systems","type":"Notice","abstract":"The Federal Trade Commission (\"Commission\") is proposing a policy statement regarding the application of the prohibition on deceptive acts or practices in section 5 of the Federal Trade Commission Act to companies that market artificial intelligence (\"AI\") systems.","document_number":"2026-13628","html_url":"https://www.federalregister.gov/documents/2026/07/07/2026-13628/policy-statement-concerning-the-suppression-of-accuracy-in-artificial-intelligence-systems","pdf_url":"https://www.govinfo.gov/content/pkg/FR-2026-07-07/pdf/2026-13628.pdf","public_inspection_pdf_url":"https://public-inspection.federalregister.gov/2026-13628.pdf?1783341907","publication_date":"2026-07-07","agencies":[{"raw_name":"FEDERAL TRADE COMMISSION","name":"Federal Trade Commission","id":192,"url":"https://www.federalregister.gov/agencies/federal-trade-commission","json_url":"https://www.federalregister.gov/api/v1/agencies/192","parent_id":null,"slug":"federal-trade-commission"}],"excerpts":"Economic Advisors, Executive Office of the President, \n <span class=\"match\">Artificial</span> <span class=\"match\">Intelligence</span> and the Great Divergence \n at 1 (Jan. 2026), \n https://www.whitehouse.gov/wp-content/uploads/2026/01/<span class=\"match\">Artificial</span>-<span class=\"match\">Intelligence</span>-and-the-Great-Divergence-5.pdf. \n \n \n Nonetheless, an AI company might be tempted to alter or steer the output of its systems contrary to consumers' reasonable expectations for various reasons, including attempted compliance with a State law, such as Colorado's recently revised <span class=\"match\">Artificial</span> <span class=\"match\">Intelligence</span> Act. But steering an AI system in this manner may"}]}